%YAML 1.1
%TAG !u! tag:unity3d.com,2011:
--- !u!114 &11400000
MonoBehaviour:
  m_ObjectHideFlags: 0
  m_PrefabParentObject: {fileID: 0}
  m_PrefabInternal: {fileID: 0}
  m_GameObject: {fileID: 0}
  m_Enabled: 1
  m_EditorHideFlags: 0
  m_Script: {fileID: 11500000, guid: 3c01835e24e2e7848950c45d03926306, type: 3}
  m_Name: medikit
  m_EditorClassIdentifier: 
  objectPrefab: {fileID: 0}
  objectImage: {fileID: 0}
  quantity: 0
  itemLogic:
    logicType: 0
    name: 
  objectTooltip: 
